{
    "app-id" : "ar.com.softwareperonista.Rockarrolla",
    "runtime" : "org.gnome.Platform",
    "runtime-version" : "3.32",
    "sdk" : "org.gnome.Sdk",
    "command" : "rockarrolla",
    "branch" : "master",
    "desktop-file-name-suffix" : " (master)",
    "finish-args" : [
        "--share=network",
        "--socket=x11",
        "--socket=wayland",
        "--socket=pulseaudio",
        "--filesystem=home:ro",
        "--filesystem=xdg-run/dconf",
        "--filesystem=~/.config/dconf:ro",
        "--talk-name=ca.desrt.dconf",
        "--env=DCONF_USER_CONFIG_DIR=.config/dconf"
    ],
    "build-options" : {
        "cflags" : "-O2 -g",
        "cxxflags" : "-O2 -g",
        "env" : {
            "V" : "1"
        }
    },
    "cleanup" : [
        "/include",
        "/lib/pkgconfig",
        "/man",
        "/share/doc",
        "/share/gtk-doc",
        "/share/man",
        "/share/pkgconfig",
        "/share/vala",
        "*.la",
        "*.a"
    ],
    "modules" : [
        {
            "name" : "doctrina",
            "buildsystem" : "meson",
            "builddir" : true,
            "config-opts" : [
            ],
            "sources" : [
                {
                    "type" : "git",
                    "url" : "https://git.softwareperonista.com.ar/cdp/doctrina.git",
                    "branch" : "estable"
                }
            ]
        },
        {
            "name" : "taglib",
            "buildsystem" : "cmake",
            "config-opts" : [
                "-DBUILD_SHARED_LIBS=ON"
            ],
            "builddir" : true,
            "sources" : [
                {
                    "type" : "archive",
                    "url" : "https://taglib.github.io/releases/taglib-1.11.1.tar.gz",
                    "sha256" : "b6d1a5a610aae6ff39d93de5efd0fdc787aa9e9dc1e7026fa4c961b26563526b"
                }
            ]
        },
        {
            "name" : "rockarrolla",
            "buildsystem" : "meson",
            "config-opts" : [
            ],
            "builddir" : true,
            "sources" : [
                {
                    "type" : "git",
                    "url" : "https://git.softwareperonista.com.ar/cdp/rockarrolla.git"
                }
            ]
        }
    ]
}
