<?xml version="1.0" encoding="UTF-8" standalone="no"?>
<!-- Created with Inkscape (http://www.inkscape.org/) -->

<svg
   xmlns:dc="http://purl.org/dc/elements/1.1/"
   xmlns:cc="http://creativecommons.org/ns#"
   xmlns:rdf="http://www.w3.org/1999/02/22-rdf-syntax-ns#"
   xmlns:svg="http://www.w3.org/2000/svg"
   xmlns="http://www.w3.org/2000/svg"
   xmlns:sodipodi="http://sodipodi.sourceforge.net/DTD/sodipodi-0.dtd"
   xmlns:inkscape="http://www.inkscape.org/namespaces/inkscape"
   width="256"
   height="256"
   viewBox="0 0 67.733331 67.733331"
   version="1.1"
   id="svg8"
   inkscape:version="0.92.4 5da689c313, 2019-01-14"
   sodipodi:docname="no-cover.svg">
  <title
     id="title3856">No Cover</title>
  <defs
     id="defs2">
    <clipPath
       clipPathUnits="userSpaceOnUse"
       id="clipPath3840">
      <g
         id="g3846"
         transform="translate(0,1.1196022e-6)">
        <path
           inkscape:transform-center-y="1.1013787"
           inkscape:transform-center-x="0.31135651"
           d="m -38.175594,100.07441 0.08122,-0.114666 -98.012659,-9.112445 0.0587,0.127674 56.897939,-80.325233 -0.139915,-0.01301 z"
           inkscape:randomized="0"
           inkscape:rounded="0"
           inkscape:flatsided="false"
           sodipodi:arg2="0.61506725"
           sodipodi:arg1="0.61754156"
           sodipodi:r2="56.791157"
           sodipodi:r1="56.791157"
           sodipodi:cy="67.190483"
           sodipodi:cx="-84.477676"
           sodipodi:sides="3"
           id="path3842"
           style="fill:#ff0000;stroke-width:0.26458332"
           sodipodi:type="star" />
        <path
           transform="rotate(-62.228913,34.007342,75.245141)"
           inkscape:transform-center-y="16.809358"
           inkscape:transform-center-x="-14.047118"
           d="m 19.659096,112.40158 0.08122,-0.11466 -98.012663,-9.11245 0.05869,0.12767 56.897941,-80.325229 -0.139915,-0.01301 z"
           inkscape:randomized="0"
           inkscape:rounded="0"
           inkscape:flatsided="false"
           sodipodi:arg2="0.61506725"
           sodipodi:arg1="0.61754156"
           sodipodi:r2="56.791157"
           sodipodi:r1="56.791157"
           sodipodi:cy="79.517654"
           sodipodi:cx="-26.642986"
           sodipodi:sides="3"
           id="path3844"
           style="fill:#ff0000;stroke-width:0.26458332"
           sodipodi:type="star" />
      </g>
    </clipPath>
  </defs>
  <sodipodi:namedview
     id="base"
     pagecolor="#ffffff"
     bordercolor="#666666"
     borderopacity="1.0"
     inkscape:pageopacity="0.0"
     inkscape:pageshadow="2"
     inkscape:zoom="1.4"
     inkscape:cx="91.51729"
     inkscape:cy="100.40311"
     inkscape:document-units="px"
     inkscape:current-layer="layer1"
     showgrid="false"
     showborder="false"
     inkscape:pagecheckerboard="true"
     inkscape:window-width="1920"
     inkscape:window-height="1016"
     inkscape:window-x="0"
     inkscape:window-y="27"
     inkscape:window-maximized="1"
     showguides="false"
     units="px" />
  <metadata
     id="metadata5">
    <rdf:RDF>
      <cc:Work
         rdf:about="">
        <dc:format>image/svg+xml</dc:format>
        <dc:type
           rdf:resource="http://purl.org/dc/dcmitype/StillImage" />
        <dc:title>No Cover</dc:title>
        <cc:license
           rdf:resource="http://creativecommons.org/licenses/by-sa/4.0/" />
        <dc:date>16/03/2019</dc:date>
        <dc:creator>
          <cc:Agent>
            <dc:title>Fernando Fernández</dc:title>
          </cc:Agent>
        </dc:creator>
      </cc:Work>
      <cc:License
         rdf:about="http://creativecommons.org/licenses/by-sa/4.0/">
        <cc:permits
           rdf:resource="http://creativecommons.org/ns#Reproduction" />
        <cc:permits
           rdf:resource="http://creativecommons.org/ns#Distribution" />
        <cc:requires
           rdf:resource="http://creativecommons.org/ns#Notice" />
        <cc:requires
           rdf:resource="http://creativecommons.org/ns#Attribution" />
        <cc:permits
           rdf:resource="http://creativecommons.org/ns#DerivativeWorks" />
        <cc:requires
           rdf:resource="http://creativecommons.org/ns#ShareAlike" />
      </cc:License>
    </rdf:RDF>
  </metadata>
  <g
     inkscape:label="Capa 1"
     inkscape:groupmode="layer"
     id="layer1"
     transform="translate(0,-229.26669)">
    <g
       id="g3852"
       transform="translate(142.8613,145.06725)">
      <circle
         r="33.866665"
         style="stroke-width:0.13229167"
         cy="118.06608"
         cx="-108.99464"
         id="path37" />
      <circle
         r="13.229166"
         style="fill:#ffffff;stroke-width:0.13229167"
         cy="118.06608"
         cx="-108.99464"
         id="path39" />
      <circle
         r="2.6458333"
         cy="118.06608"
         cx="-108.99464"
         id="path41"
         style="fill:#000000;stroke-width:0.26458332" />
      <path
         transform="translate(-71.325301,19.881517)"
         clip-path="url(#clipPath3840)"
         inkscape:connector-curvature="0"
         id="path43"
         d="m -37.669335,65.640813 a 32.543752,32.543752 0 0 0 -32.54375,32.543748 32.543752,32.543752 0 0 0 32.54375,32.543749 A 32.543752,32.543752 0 0 0 -5.1255856,98.184561 32.543752,32.543752 0 0 0 -37.669335,65.640813 Z m 0,17.991666 a 14.552083,14.552083 0 0 1 14.552083,14.552082 14.552083,14.552083 0 0 1 -14.552083,14.552079 14.552083,14.552083 0 0 1 -14.552084,-14.552079 14.552083,14.552083 0 0 1 14.552084,-14.552082 z"
         style="fill:#ffffff;stroke-width:0.21706881" />
    </g>
  </g>
</svg>
